[
  {
    "id":"8",
    "sid":"31",
    "name":"南港展覽館",
    "x":"582",
    "y":"189",
    "en_name_1":"Taipei Nangang",
    "en_name_2":"Exhibition Center",
    "en_name_1_dx":"-1",
    "en_name_2_dx":"-2.5",
    "station_circle_map_cx":"603.017",
    "station_circle_map_cy":"206.735",
    "station_circle_map_fill":"#FFFFFF",
    "station_circle_map_r":"4.2",
    "station_circle_map_stroke":"#666666",
    "station_circle_map_stroke_width":"1.1999",
    "station_circle_map_stroke-miterlimit":"22.9256",
    "path_d":null,
    "path_d2":null,
    "trans_circlex":null,
    "trans_circley":null,
    "all_line":"31-1,31-5"
  },
 {"id":"9","sid":"30","name":"南港軟體園區","x":"524","y":"184","en_name_1":"Nangang","en_name_2":"Software Park","en_name_1_dx":"13","en_name_2_dx":"5","station_circle_map_cx":"575.049","station_circle_map_cy":"187.887","station_circle_map_fill":"#FFFFFF","station_circle_map_r":"2.427","station_circle_map_stroke":"#666666","station_circle_map_stroke_width":"1.1999","station_circle_map_stroke-miterlimit":"22.9256","path_d":null,"path_d2":null,"trans_circlex":null,"trans_circley":null,"all_line":"30-1,30-1"},{"id":"10","sid":"29","name":"東湖","x":"555","y":"160","en_name_1":"Donghu","en_name_2":null,"en_name_1_dx":"-3","en_name_2_dx":null,"station_circle_map_cx":"575.049","station_circle_map_cy":"159.763","station_circle_map_fill":"#FFFFFF","station_circle_map_r":"2.427","station_circle_map_stroke":"#666666","station_circle_map_stroke_width":"1.1999","station_circle_map_stroke-miterlimit":"22.9256","path_d":null,"path_d2":null,"trans_circlex":null,"trans_circley":null,"all_line":"29-1,29-1"},{"id":"11","sid":"28","name":"葫洲","x":"540","y":"142","en_name_1":"Huzhou","en_name_2":null,"en_name_1_dx":"-2","en_name_2_dx":null,"station_circle_map_cx":"559.127","station_circle_map_cy":"135.279","station_circle_map_fill":"#FFFFFF","station_circle_map_r":"2.427","station_circle_map_stroke":"#666666","station_circle_map_stroke_width":"1.1999","station_circle_map_stroke-miterlimit":"22.9256","path_d":null,"path_d2":null,"trans_circlex":null,"trans_circley":null,"all_line":"28-1,28-1"},{"id":"12","sid":"27","name":"大湖公園","x":"505","y":"124","en_name_1":"Dahu Park","en_name_2":null,"en_name_1_dx":"2.5","en_name_2_dx":null,"station_circle_map_cx":"540.002","station_circle_map_cy":"116.154","station_circle_map_fill":"#FFFFFF","station_circle_map_r":"2.427","station_circle_map_stroke":"#666666","station_circle_map_stroke_width":"1.1999","station_circle_map_stroke-miterlimit":"22.9256","path_d":null,"path_d2":null,"trans_circlex":null,"trans_circley":null,"all_line":"27-1,27-1"},{"id":"13","sid":"26","name":"內湖","x":"507","y":"91","en_name_1":"Neihu","en_name_2":null,"en_name_1_dx":null,"en_name_2_dx":null,"station_circle_map_cx":"514.954","station_circle_map_cy":"100.801","station_circle_map_fill":"#FFFFFF","station_circle_map_r":"2.427","station_circle_map_stroke":"#666666","station_circle_map_stroke_width":"1.1999","station_circle_map_stroke-miterlimit":"22.9256","path_d":null,"path_d2":null,"trans_circlex":null,"trans_circley":null,"all_line":"26-1,26-1"},{"id":"14","sid":"25","name":"文德","x":"479","y":"111","en_name_1":"Wende","en_name_2":null,"en_name_1_dx":"-1","en_name_2_dx":null,"station_circle_map_cx":"487.205","station_circle_map_cy":"100.801","station_circle_map_fill":"#FFFFFF","station_circle_map_r":"2.427","station_circle_map_stroke":"#666666","station_circle_map_stroke_width":"1.1999","station_circle_map_stroke-miterlimit":"22.9256","path_d":null,"path_d2":null,"trans_circlex":null,"trans_circley":null,"all_line":"25-1,25-1"},{"id":"15","sid":"24","name":"港墘","x":"450","y":"90","en_name_1":"Gangqian","en_name_2":null,"en_name_1_dx":"-5","en_name_2_dx":null,"station_circle_map_cx":"458.048","station_circle_map_cy":"100.801","station_circle_map_fill":"#FFFFFF","station_circle_map_r":"2.427","station_circle_map_stroke":"#666666","station_circle_map_stroke_width":"1.1999","station_circle_map_stroke-miterlimit":"22.9256","path_d":null,"path_d2":null,"trans_circlex":null,"trans_circley":null,"all_line":"24-1,24-1"},{"id":"16","sid":"23","name":"西湖","x":"420","y":"111","en_name_1":"Xihu","en_name_2":null,"en_name_1_dx":"2","en_name_2_dx":null,"station_circle_map_cx":"427.297","station_circle_map_cy":"100.801","station_circle_map_fill":"#FFFFFF","station_circle_map_r":"2.427","station_circle_map_stroke":"#666666","station_circle_map_stroke_width":"1.1999","station_circle_map_stroke-miterlimit":"22.9256","path_d":null,"path_d2":null,"trans_circlex":null,"trans_circley":null,"all_line":"23-1,23-1"},{"id":"17","sid":"22","name":"劍南路","x":"399","y":"124","en_name_1":"Jiannan Rd.","en_name_2":null,"en_name_1_dx":"-4","en_name_2_dx":null,"station_circle_map_cx":"398.799","station_circle_map_cy":"115.051","station_circle_map_fill":"#FFFFFF","station_circle_map_r":"2.427","station_circle_map_stroke":"#666666","station_circle_map_stroke_width":"1.1999","station_circle_map_stroke-miterlimit":"22.9256","path_d":null,"path_d2":null,"trans_circlex":null,"trans_circley":null,"all_line":"22-1,22-1"},{"id":"18","sid":"21","name":"大直","x":"365","y":"138","en_name_1":"Dazhi","en_name_2":null,"en_name_1_dx":"0.5","en_name_2_dx":null,"station_circle_map_cx":"384.549","station_circle_map_cy":"137.701","station_circle_map_fill":"#FFFFFF","station_circle_map_r":"2.427","station_circle_map_stroke":"#666666","station_circle_map_stroke_width":"1.1999","station_circle_map_stroke-miterlimit":"22.9256","path_d":null,"path_d2":null,"trans_circlex":null,"trans_circley":null,"all_line":"21-1,21-1"},{"id":"19","sid":"7","name":"松山機場","x":"396","y":"157","en_name_1":"Songshan","en_name_2":"Airport","en_name_1_dx":"3","en_name_2_dx":"7","station_circle_map_cx":"393.849","station_circle_map_cy":"161.101","station_circle_map_fill":"#FFFFFF","station_circle_map_r":"2.427","station_circle_map_stroke":"#666666","station_circle_map_stroke_width":"1.1999","station_circle_map_stroke-miterlimit":"22.9256","path_d":null,"path_d2":null,"trans_circlex":null,"trans_circley":null,"all_line":"7-1,7-1"},{"id":"20","sid":"8","name":"中山國中","x":"396","y":"196","en_name_1":"Zhongshan Junior","en_name_2":"High School","en_name_1_dx":"-8","en_name_2_dx":null,"station_circle_map_cx":"384.549","station_circle_map_cy":"200.308","station_circle_map_fill":"#FFFFFF","station_circle_map_r":"2.427","station_circle_map_stroke":"#666666","station_circle_map_stroke_width":"1.1999","station_circle_map_stroke-miterlimit":"22.9256","path_d":null,"path_d2":null,"trans_circlex":null,"trans_circley":null,"all_line":"8-1,8-1"},{"id":"21","sid":"9","name":"南京復興","x":"392","y":"227","en_name_1":"Nanjing Fuxing","en_name_2":null,"en_name_1_dx":"-4","en_name_2_dx":null,"station_circle_map_cx":"384.549","station_circle_map_cy":"236.828","station_circle_map_fill":"#FFFFFF","station_circle_map_r":"4.2","station_circle_map_stroke":"#666666","station_circle_map_stroke_width":"1.1999","station_circle_map_stroke-miterlimit":"22.9256","path_d":null,"path_d2":null,"trans_circlex":"384.549","trans_circley":"236.828","all_line":"9-1,9-1,9-3,9-3"},{"id":"22","sid":"10","name":"忠孝復興","x":"348","y":"260","en_name_1":"Zhongxiao Fuxing","en_name_2":null,"en_name_1_dx":"-16","en_name_2_dx":null,"station_circle_map_cx":"384.549","station_circle_map_cy":"269.228","station_circle_map_fill":"#FFFFFF","station_circle_map_r":"4.2","station_circle_map_stroke":"#666666","station_circle_map_stroke_width":"1.1999","station_circle_map_stroke-miterlimit":"22.9256","path_d":null,"path_d2":null,"trans_circlex":"384.549","trans_circley":"269.228","all_line":"10-1,10-1,10-5,10-5"},{"id":"23","sid":"11","name":"大安","x":"387","y":"303","en_name_1":"Daan","en_name_2":null,"en_name_1_dx":"1","en_name_2_dx":null,"station_circle_map_cx":"384.549","station_circle_map_cy":"312.427","station_circle_map_fill":"#FFFFFF","station_circle_map_r":"4.2","station_circle_map_stroke":"#666666","station_circle_map_stroke_width":"1.1999","station_circle_map_stroke-miterlimit":"22.9256","path_d":null,"path_d2":null,"trans_circlex":"384.549","trans_circley":"312.428","all_line":"11-1,11-1,11-2,11-2"},{"id":"24","sid":"12","name":"科技大樓","x":"349","y":"327","en_name_1":"Technology","en_name_2":"Building","en_name_1_dx":null,"en_name_2_dx":"6","station_circle_map_cx":"384.549","station_circle_map_cy":"331.352","station_circle_map_fill":"#FFFFFF","station_circle_map_r":"2.427","station_circle_map_stroke":"#666666","station_circle_map_stroke_width":"1.1999","station_circle_map_stroke-miterlimit":"22.9256","path_d":null,"path_d2":null,"trans_circlex":null,"trans_circley":null,"all_line":"12-1,12-1"},{"id":"25","sid":"13","name":"六張犁","x":"398","y":"350","en_name_1":"Liuzhangli","en_name_2":null,"en_name_1_dx":"-2","en_name_2_dx":null,"station_circle_map_cx":"425.075","station_circle_map_cy":"344.254","station_circle_map_fill":"#FFFFFF","station_circle_map_r":"2.427","station_circle_map_stroke":"#666666","station_circle_map_stroke_width":"1.1999","station_circle_map_stroke-miterlimit":"22.9256","path_d":null,"path_d2":null,"trans_circlex":null,"trans_circley":null,"all_line":"13-1,13-1"},{"id":"26","sid":"14","name":"麟光","x":"426","y":"371","en_name_1":"Linguang","en_name_2":null,"en_name_1_dx":"-4","en_name_2_dx":null,"station_circle_map_cx":"445.354","station_circle_map_cy":"364.532","station_circle_map_fill":"#FFFFFF","station_circle_map_r":"2.427","station_circle_map_stroke":"#666666","station_circle_map_stroke_width":"1.1999","station_circle_map_stroke-miterlimit":"22.9256","path_d":null,"path_d2":null,"trans_circlex":null,"trans_circley":null,"all_line":"14-1,14-1"},{"id":"27","sid":"15","name":"辛亥","x":"456","y":"390","en_name_1":"Xinhai","en_name_2":null,"en_name_1_dx":null,"en_name_2_dx":null,"station_circle_map_cx":"452.049","station_circle_map_cy":"391.112","station_circle_map_fill":"#FFFFFF","station_circle_map_r":"2.427","station_circle_map_stroke":"#666666","station_circle_map_stroke_width":"1.1999","station_circle_map_stroke-miterlimit":"22.9256","path_d":null,"path_d2":null,"trans_circlex":null,"trans_circley":null,"all_line":"15-1,15-1"},{"id":"28","sid":"16","name":"萬芳醫院","x":"411","y":"420","en_name_1":"Wanfang Hospital","en_name_2":null,"en_name_1_dx":"-9","en_name_2_dx":null,"station_circle_map_cx":"452.049","station_circle_map_cy":"417.551","station_circle_map_fill":"#FFFFFF","station_circle_map_r":"2.427","station_circle_map_stroke":"#666666","station_circle_map_stroke_width":"1.1999","station_circle_map_stroke-miterlimit":"22.9256","path_d":null,"path_d2":null,"trans_circlex":null,"trans_circley":null,"all_line":"16-1,16-1"},{"id":"29","sid":"17","name":"萬芳社區","x":"468","y":"441","en_name_1":"Wanfang Community","en_name_2":null,"en_name_1_dx":"-14","en_name_2_dx":null,"station_circle_map_cx":"483.714","station_circle_map_cy":"431.228","station_circle_map_fill":"#FFFFFF","station_circle_map_r":"2.427","station_circle_map_stroke":"#666666","station_circle_map_stroke_width":"1.1999","station_circle_map_stroke-miterlimit":"22.9256","path_d":null,"path_d2":null,"trans_circlex":null,"trans_circley":null,"all_line":"17-1,17-1"},{"id":"30","sid":"18","name":"木柵","x":"505","y":"421","en_name_1":"Muzha","en_name_2":null,"en_name_1_dx":"-1","en_name_2_dx":null,"station_circle_map_cx":"513.279","station_circle_map_cy":"431.228","station_circle_map_fill":"#FFFFFF","station_circle_map_r":"2.427","station_circle_map_stroke":"#666666","station_circle_map_stroke_width":"1.1999","station_circle_map_stroke-miterlimit":"22.9256","path_d":null,"path_d2":null,"trans_circlex":null,"trans_circley":null,"all_line":"18-1,18-1"},{"id":"31","sid":"19","name":"動物園","x":"557","y":"413","en_name_1":"Taipei Zoo","en_name_2":null,"en_name_1_dx":"-2","en_name_2_dx":null,"station_circle_map_cx":"549.849","station_circle_map_cy":"414.445","station_circle_map_fill":"#AA753F","station_circle_map_r":"4.2","station_circle_map_stroke":"#AA753F","station_circle_map_stroke_width":"1.1999","station_circle_map_stroke-miterlimit":"22.9256","path_d":null,"path_d2":null,"trans_circlex":null,"trans_circley":null,"all_line":"19-1"},{"id":"32","sid":"71","name":"淡水","x":"24","y":"35","en_name_1":"Tamsui","en_name_2":null,"en_name_1_dx":"-3","en_name_2_dx":null,"station_circle_map_cx":"44.925","station_circle_map_cy":"33.716","station_circle_map_fill":"#E3002D","station_circle_map_r":"4.2","station_circle_map_stroke":"#E3002D","station_circle_map_stroke_width":"1.1999","station_circle_map_stroke-miterlimit":"22.9256","path_d":null,"path_d2":null,"trans_circlex":null,"trans_circley":null,"all_line":"71-2"},{"id":"33","sid":"70","name":"紅樹林","x":"59","y":"44","en_name_1":"Hongshulin","en_name_2":null,"en_name_1_dx":"-3","en_name_2_dx":null,"station_circle_map_cx":"70.866","station_circle_map_cy":"33.716","station_circle_map_fill":"#FFFFFF","station_circle_map_r":"2.427","station_circle_map_stroke":"#666666","station_circle_map_stroke_width":"1.1999","station_circle_map_stroke-miterlimit":"22.9256","path_d":null,"path_d2":null,"trans_circlex":null,"trans_circley":null,"all_line":"70-2,70-2"},{"id":"34","sid":"69","name":"竹圍","x":"88","y":"24","en_name_1":"Zhuwei","en_name_2":null,"en_name_1_dx":"-1","en_name_2_dx":null,"station_circle_map_cx":"96.741","station_circle_map_cy":"33.716","station_circle_map_fill":"#FFFFFF","station_circle_map_r":"2.427","station_circle_map_stroke":"#666666","station_circle_map_stroke_width":"1.1999","station_circle_map_stroke-miterlimit":"22.9256","path_d":null,"path_d2":null,"trans_circlex":null,"trans_circley":null,"all_line":"69-2,69-2"},{"id":"35","sid":"68","name":"關渡","x":"115","y":"44","en_name_1":"Guandu","en_name_2":null,"en_name_1_dx":"-3","en_name_2_dx":null,"station_circle_map_cx":"123.179","station_circle_map_cy":"33.716","station_circle_map_fill":"#FFFFFF","station_circle_map_r":"2.427","station_circle_map_stroke":"#666666","station_circle_map_stroke_width":"1.1999","station_circle_map_stroke-miterlimit":"22.9256","path_d":null,"path_d2":null,"trans_circlex":null,"trans_circley":null,"all_line":"68-2,68-2"},{"id":"36","sid":"67","name":"忠義","x":"140","y":"24","en_name_1":"Zhongyi","en_name_2":null,"en_name_1_dx":"-3","en_name_2_dx":null,"station_circle_map_cx":"147.929","station_circle_map_cy":"33.716","station_circle_map_fill":"#FFFFFF","station_circle_map_r":"2.427","station_circle_map_stroke":"#666666","station_circle_map_stroke_width":"1.1999","station_circle_map_stroke-miterlimit":"22.9256","path_d":null,"path_d2":null,"trans_circlex":null,"trans_circley":null,"all_line":"67-2,67-2"},{"id":"37","sid":"66","name":"復興崗","x":"161","y":"44","en_name_1":"Fuxinggang","en_name_2":null,"en_name_1_dx":"-4","en_name_2_dx":null,"station_circle_map_cx":"173.429","station_circle_map_cy":"33.716","station_circle_map_fill":"#FFFFFF","station_circle_map_r":"2.427","station_circle_map_stroke":"#666666","station_circle_map_stroke_width":"1.1999","station_circle_map_stroke-miterlimit":"22.9256","path_d":null,"path_d2":null,"trans_circlex":null,"trans_circley":null,"all_line":"66-2,66-2"},{"id":"38","sid":"64","name":"北投","x":"211","y":"41","en_name_1":"Beitou","en_name_2":null,"en_name_1_dx":"-1","en_name_2_dx":null,"station_circle_map_cx":"205.686","station_circle_map_cy":"41.338","station_circle_map_fill":"#FFFFFF","station_circle_map_r":"4.2","station_circle_map_stroke":"#666666","station_circle_map_stroke_width":"1.1999","station_circle_map_stroke-miterlimit":"22.9256","path_d":null,"path_d2":null,"trans_circlex":null,"trans_circley":null,"all_line":"64-2,64-2,64-6"},{"id":"39","sid":"63","name":"奇岩","x":"199","y":"62","en_name_1":"Qiyan","en_name_2":null,"en_name_1_dx":"0.5","en_name_2_dx":null,"station_circle_map_cx":"217.945","station_circle_map_cy":"56.991","station_circle_map_fill":"#FFFFFF","station_circle_map_r":"2.427","station_circle_map_stroke":"#666666","station_circle_map_stroke_width":"1.1999","station_circle_map_stroke-miterlimit":"22.9256","path_d":null,"path_d2":null,"trans_circlex":null,"trans_circley":null,"all_line":"63-2,63-2"},{"id":"40","sid":"62","name":"唭哩岸","x":"204","y":"77","en_name_1":"Qilian","en_name_2":null,"en_name_1_dx":"5","en_name_2_dx":null,"station_circle_map_cx":"230.879","station_circle_map_cy":"69.925","station_circle_map_fill":"#FFFFFF","station_circle_map_r":"2.427","station_circle_map_stroke":"#666666","station_circle_map_stroke_width":"1.1999","station_circle_map_stroke-miterlimit":"22.9256","path_d":null,"path_d2":null,"trans_circlex":null,"trans_circley":null,"all_line":"62-2,62-2"},{"id":"41","sid":"61","name":"石牌","x":"225","y":"88","en_name_1":"Shipai","en_name_2":null,"en_name_1_dx":null,"en_name_2_dx":null,"station_circle_map_cx":"243.688","station_circle_map_cy":"82.733","station_circle_map_fill":"#FFFFFF","station_circle_map_r":"2.427","station_circle_map_stroke":"#666666","station_circle_map_stroke_width":"1.1999","station_circle_map_stroke-miterlimit":"22.9256","path_d":null,"path_d2":null,"trans_circlex":null,"trans_circley":null,"all_line":"61-2,61-2"},{"id":"42","sid":"60","name":"明德","x":"238","y":"102","en_name_1":"Mingde","en_name_2":null,"en_name_1_dx":"-2","en_name_2_dx":null,"station_circle_map_cx":"257.255","station_circle_map_cy":"96.301","station_circle_map_fill":"#FFFFFF","station_circle_map_r":"2.427","station_circle_map_stroke":"#666666","station_circle_map_stroke_width":"1.1999","station_circle_map_stroke-miterlimit":"22.9256","path_d":null,"path_d2":null,"trans_circlex":null,"trans_circley":null,"all_line":"60-2,60-2"},{"id":"43","sid":"59","name":"芝山","x":"267","y":"112","en_name_1":"Zhishan","en_name_2":null,"en_name_1_dx":"-2","en_name_2_dx":null,"station_circle_map_cx":"262.449","station_circle_map_cy":"110.943","station_circle_map_fill":"#FFFFFF","station_circle_map_r":"2.427","station_circle_map_stroke":"#666666","station_circle_map_stroke_width":"1.1999","station_circle_map_stroke-miterlimit":"22.9256","path_d":null,"path_d2":null,"trans_circlex":null,"trans_circley":null,"all_line":"59-2,59-2"},{"id":"44","sid":"58","name":"士林","x":"265","y":"131","en_name_1":"Shilin","en_name_2":null,"en_name_1_dx":null,"en_name_2_dx":null,"station_circle_map_cx":"262.449","station_circle_map_cy":"130.143","station_circle_map_fill":"#FFFFFF","station_circle_map_r":"2.427","station_circle_map_stroke":"#666666","station_circle_map_stroke_width":"1.1999","station_circle_map_stroke-miterlimit":"22.9256","path_d":null,"path_d2":null,"trans_circlex":null,"trans_circley":null,"all_line":"58-2,58-2"},{"id":"45","sid":"57","name":"劍潭","x":"266.5","y":"149","en_name_1":"Jiantan","en_name_2":null,"en_name_1_dx":"-2","en_name_2_dx":null,"station_circle_map_cx":"262.449","station_circle_map_cy":"148.088","station_circle_map_fill":"#FFFFFF","station_circle_map_r":"2.427","station_circle_map_stroke":"#666666","station_circle_map_stroke_width":"1.1999","station_circle_map_stroke-miterlimit":"22.9256","path_d":null,"path_d2":null,"trans_circlex":null,"trans_circley":null,"all_line":"57-2,57-2"},{"id":"46","sid":"56","name":"圓山","x":"240","y":"170","en_name_1":"Yuanshan","en_name_2":null,"en_name_1_dx":"-6","en_name_2_dx":null,"station_circle_map_cx":"262.449","station_circle_map_cy":"168.57","station_circle_map_fill":"#FFFFFF","station_circle_map_r":"2.427","station_circle_map_stroke":"#666666","station_circle_map_stroke_width":"1.1999","station_circle_map_stroke-miterlimit":"22.9256","path_d":null,"path_d2":null,"trans_circlex":null,"trans_circley":null,"all_line":"56-2,56-2"},{"id":"47","sid":"55","name":"民權西路","x":"266","y":"205","en_name_1":"Minquan W. Rd.","en_name_2":null,"en_name_1_dx":"-1","en_name_2_dx":null,"station_circle_map_cx":"262.449","station_circle_map_cy":"196.029","station_circle_map_fill":"#FFFFFF","station_circle_map_r":"4.2","station_circle_map_stroke":"#666666","station_circle_map_stroke_width":"1.1999","station_circle_map_stroke-miterlimit":"22.9256","path_d":null,"path_d2":null,"trans_circlex":"262.449","trans_circley":"196.029","all_line":"55-2,55-2,55-4,55-4,55-4"},{"id":"48","sid":"54","name":"雙連","x":"238","y":"216","en_name_1":"Shuanglian","en_name_2":null,"en_name_1_dx":"-7","en_name_2_dx":null,"station_circle_map_cx":"262.449","station_circle_map_cy":"214.139","station_circle_map_fill":"#FFFFFF","station_circle_map_r":"2.427","station_circle_map_stroke":"#666666","station_circle_map_stroke_width":"1.1999","station_circle_map_stroke-miterlimit":"22.9256","path_d":null,"path_d2":null,"trans_circlex":null,"trans_circley":null,"all_line":"54-2,54-2"},{"id":"49","sid":"53","name":"中山","x":"266","y":"227","en_name_1":"Zhongshan","en_name_2":null,"en_name_1_dx":null,"en_name_2_dx":null,"station_circle_map_cx":"262.449","station_circle_map_cy":"236.828","station_circle_map_fill":"#FFFFFF","station_circle_map_r":"4.2","station_circle_map_stroke":"#666666","station_circle_map_stroke_width":"1.1999","station_circle_map_stroke-miterlimit":"22.9256","path_d":null,"path_d2":null,"trans_circlex":"262.449","trans_circley":"236.828","all_line":"53-2,53-2,53-3,53-3"},{"id":"50","sid":"51","name":"台北車站","x":"227","y":"278","en_name_1":"Taipei Main","en_name_2":"Station","en_name_1_dx":"-1","en_name_2_dx":"7","station_circle_map_cx":"262.449","station_circle_map_cy":"269.228","station_circle_map_fill":"#FFFFFF","station_circle_map_r":"4.2","station_circle_map_stroke":"#666666","station_circle_map_stroke_width":"1.1999","station_circle_map_stroke-miterlimit":"22.9256","path_d":null,"path_d2":null,"trans_circlex":"262.449","trans_circley":"269.228","all_line":"51-2,51-2,51-5,51-5"},{"id":"51","sid":"50","name":"台大醫院","x":"267","y":"286","en_name_1":"NTU Hospital","en_name_2":null,"en_name_1_dx":"-2","en_name_2_dx":null,"station_circle_map_cx":"262.449","station_circle_map_cy":"286.055","station_circle_map_fill":"#FFFFFF","station_circle_map_r":"2.427","station_circle_map_stroke":"#666666","station_circle_map_stroke_width":"1.1999","station_circle_map_stroke-miterlimit":"22.9256","path_d":null,"path_d2":null,"trans_circlex":null,"trans_circley":null,"all_line":"50-2,50-2"},{"id":"52","sid":"42","name":"中正紀念堂","x":"236","y":"328","en_name_1":"C.K.S.","en_name_2":"Memorial Hall","en_name_1_dx":"13","en_name_2_dx":"2","station_circle_map_cx":null,"station_circle_map_cy":null,"station_circle_map_fill":null,"station_circle_map_r":null,"station_circle_map_stroke":null,"station_circle_map_stroke_width":null,"station_circle_map_stroke-miterlimit":null,"path_d":"M274.825,317.81l3.394-3.394 M271.392,314.377l3.394-3.394 M274.825,317.81c-0.948,0.948-2.485,0.948-3.433,0s-0.948-2.485,0-3.433 M274.786,310.984 c0.948-0.948,2.485-0.948,3.433,0c0.948,0.947,0.948,2.484,0,3.433","path_d2":"M278.219,314.417c0.948-0.948,0.948-2.485,0-3.433c-0.948-0.948-2.485-0.948-3.433,0l-3.394,3.394 c-0.948,0.947-0.948,2.484,0,3.433c0.948,0.949,2.485,0.948,3.433,0L278.219,314.417z","trans_circlex":null,"trans_circley":null,"all_line":"42-2,42-2,42-3,42-3"},{"id":"53","sid":"134","name":"東門","x":"320","y":"325","en_name_1":"Dongmen","en_name_2":null,"en_name_1_dx":"-5","en_name_2_dx":null,"station_circle_map_cx":null,"station_circle_map_cy":null,"station_circle_map_fill":null,"station_circle_map_r":null,"station_circle_map_stroke":null,"station_circle_map_stroke_width":null,"station_circle_map_stroke-miterlimit":null,"path_d":"M315.126,319.543l-3.394-3.394 M318.559,316.111l-3.394-3.394 M315.126,319.543c0.948,0.948,2.484,0.948,3.433,0s0.948-2.484,0-3.433 M315.165,312.717 c-0.948-0.948-2.485-0.948-3.433,0c-0.948,0.948-0.948,2.484,0,3.433","path_d2":"M311.732,316.15c-0.948-0.948-0.948-2.484,0-3.433c0.947-0.948,2.484-0.948,3.433,0l3.394,3.394 c0.948,0.948,0.948,2.484,0,3.433c-0.948,0.949-2.484,0.948-3.433,0L311.732,316.15z","trans_circlex":null,"trans_circley":null,"all_line":"134-2,134-2,134-4,134-4,134-4"},{"id":"54","sid":"103","name":"大安森林公園","x":"332","y":"303","en_name_1":"Daan Park","en_name_2":null,"en_name_1_dx":"11","en_name_2_dx":null,"station_circle_map_cx":"357.326","station_circle_map_cy":"312.428","station_circle_map_fill":"#FFFFFF","station_circle_map_r":"2.427","station_circle_map_stroke":"#666666","station_circle_map_stroke_width":"1.1999","station_circle_map_stroke-miterlimit":"22.9256","path_d":null,"path_d2":null,"trans_circlex":null,"trans_circley":null,"all_line":"103-2,103-2"},{"id":"56","sid":"101","name":"信義安和","x":"416","y":"303","en_name_1":"Xinyi Anhe","en_name_2":null,"en_name_1_dx":"2","en_name_2_dx":null,"station_circle_map_cx":"432.409","station_circle_map_cy":"312.428","station_circle_map_fill":"#FFFFFF","station_circle_map_r":"2.427","station_circle_map_stroke":"#666666","station_circle_map_stroke_width":"1.1999","station_circle_map_stroke-miterlimit":"22.9256","path_d":null,"path_d2":null,"trans_circlex":null,"trans_circley":null,"all_line":"101-2,101-2"},{"id":"57","sid":"100","name":"台北101/世貿","x":"450","y":"322","en_name_1":"Taipei 101/","en_name_2":"World Trade Center","en_name_1_dx":"10","en_name_2_dx":"-2","station_circle_map_cx":"475.35","station_circle_map_cy":"312.428","station_circle_map_fill":"#FFFFFF","station_circle_map_r":"2.427","station_circle_map_stroke":"#666666","station_circle_map_stroke_width":"1.1999","station_circle_map_stroke-miterlimit":"22.9256","path_d":null,"path_d2":null,"trans_circlex":null,"trans_circley":null,"all_line":"100-2,100-2"},{"id":"58","sid":"99","name":"象山","x":"519","y":"312","en_name_1":"Xiangshan","en_name_2":null,"en_name_1_dx":"-6","en_name_2_dx":null,"station_circle_map_cx":"507.249","station_circle_map_cy":"312.427","station_circle_map_fill":"#E3002D","station_circle_map_r":"4.2","station_circle_map_stroke":"#E3002D","station_circle_map_stroke_width":"1.1999","station_circle_map_stroke-miterlimit":"22.9256","path_d":null,"path_d2":null,"trans_circlex":null,"trans_circley":null,"all_line":"99-2"},{"id":"59","sid":"111","name":"松山","x":"530","y":"236","en_name_1":"Songshan","en_name_2":null,"en_name_1_dx":"-5","en_name_2_dx":null,"station_circle_map_cx":"519.447","station_circle_map_cy":"236.828","station_circle_map_fill":"#05752B","station_circle_map_r":"4.2","station_circle_map_stroke":"#05752B","station_circle_map_stroke_width":"1.1999","station_circle_map_stroke-miterlimit":"22.9256","path_d":null,"path_d2":null,"trans_circlex":null,"trans_circley":null,"all_line":"111-3"},{"id":"60","sid":"110","name":"南京三民","x":"460","y":"226","en_name_1":"Nanjing Sanmin","en_name_2":null,"en_name_1_dx":"-5","en_name_2_dx":null,"station_circle_map_cx":"474.731","station_circle_map_cy":"236.828","station_circle_map_fill":"#FFFFFF","station_circle_map_r":"2.427","station_circle_map_stroke":"#666666","station_circle_map_stroke_width":"1.1999","station_circle_map_stroke-miterlimit":"22.9256","path_d":null,"path_d2":null,"trans_circlex":null,"trans_circley":null,"all_line":"110-3,110-3"},{"id":"61","sid":"109","name":"台北小巨蛋","x":"414","y":"246.5","en_name_1":"Taipei Arena","en_name_2":null,"en_name_1_dx":"3","en_name_2_dx":null,"station_circle_map_cx":"433.419","station_circle_map_cy":"236.828","station_circle_map_fill":"#FFFFFF","station_circle_map_r":"2.427","station_circle_map_stroke":"#666666","station_circle_map_stroke_width":"1.1999","station_circle_map_stroke-miterlimit":"22.9256","path_d":null,"path_d2":null,"trans_circlex":null,"trans_circley":null,"all_line":"109-3,109-3"},{"id":"63","sid":"132","name":"松江南京","x":"323","y":"245.5","en_name_1":"Songjiang Nanjing","en_name_2":null,"en_name_1_dx":"-2","en_name_2_dx":null,"station_circle_map_cx":"318.849","station_circle_map_cy":"236.828","station_circle_map_fill":"#FFFFFF","station_circle_map_r":"4.2","station_circle_map_stroke":"#666666","station_circle_map_stroke_width":"1.1999","station_circle_map_stroke-miterlimit":"22.9256","path_d":null,"path_d2":null,"trans_circlex":"318.849","trans_circley":"236.828","all_line":"132-3,132-3,132-4,132-4,132-4"},{"id":"65","sid":"105","name":"北門","x":"197","y":"240","en_name_1":"Beimen","en_name_2":null,"en_name_1_dx":"-3.5","en_name_2_dx":null,"station_circle_map_cx":"217.192","station_circle_map_cy":"248","station_circle_map_fill":"#FFFFFF","station_circle_map_r":"2.427","station_circle_map_stroke":"#666666","station_circle_map_stroke_width":"1.1999","station_circle_map_stroke-miterlimit":"22.9256","path_d":null,"path_d2":null,"trans_circlex":null,"trans_circley":null,"all_line":"105-3,105-3"},{"id":"66","sid":"86","name":"西門","x":"193","y":"287","en_name_1":"Ximen","en_name_2":null,"en_name_1_dx":"-1","en_name_2_dx":null,"station_circle_map_cx":null,"station_circle_map_cy":null,"station_circle_map_fill":null,"station_circle_map_r":null,"station_circle_map_stroke":null,"station_circle_map_stroke_width":null,"station_circle_map_stroke-miterlimit":null,"path_d":"M212.392,288.895h4.799 M212.392,284.04 h4.799 M212.392,288.895c-1.34,0-2.427-1.087-2.427-2.428s1.087-2.428,2.427-2.428 M217.191,284.04c1.34,0,2.427,1.087,2.427,2.428 s-1.087,2.428-2.427,2.428","path_d2":"M217.191,288.895c1.34,0,2.427-1.087,2.427-2.428s-1.087-2.428-2.427-2.428h-4.799 c-1.34,0-2.427,1.087-2.427,2.428s1.087,2.428,2.427,2.428H217.191z","trans_circlex":null,"trans_circley":null,"all_line":"86-3,86-3,86-5,86-5"},{"id":"67","sid":"43","name":"小南門","x":"227","y":"312","en_name_1":"Xiaonanmen","en_name_2":null,"en_name_1_dx":"-5","en_name_2_dx":null,"station_circle_map_cx":"238.811","station_circle_map_cy":"302.041","station_circle_map_fill":"#FFFFFF","station_circle_map_r":"2.427","station_circle_map_stroke":"#666666","station_circle_map_stroke_width":"1.1999","station_circle_map_stroke-miterlimit":"22.9256","path_d":null,"path_d2":null,"trans_circlex":null,"trans_circley":null,"all_line":"43-3,43-3"},{"id":"69","sid":"41","name":"古亭","x":"298","y":"342","en_name_1":"Guting","en_name_2":null,"en_name_1_dx":"-1","en_name_2_dx":null,"station_circle_map_cx":null,"station_circle_map_cy":null,"station_circle_map_fill":null,"station_circle_map_r":null,"station_circle_map_stroke":null,"station_circle_map_stroke_width":null,"station_circle_map_stroke-miterlimit":null,"path_d":"M290.049,337.368h4.799 M290.049,342.222 h4.799 M290.049,337.368c-1.34,0-2.427,1.087-2.427,2.428c0,1.34,1.087,2.427,2.427,2.427 M294.848,342.222 c1.34,0,2.427-1.087,2.427-2.427c0-1.341-1.087-2.428-2.427-2.428","path_d2":"M294.848,337.368c1.34,0,2.427,1.087,2.427,2.428c0,1.34-1.087,2.427-2.427,2.427h-4.799 c-1.34,0-2.427-1.087-2.427-2.427c0-1.341,1.087-2.428,2.427-2.428H294.848z","trans_circlex":null,"trans_circley":null,"all_line":"41-3,41-3,41-4,41-4,41-4"},{"id":"70","sid":"40","name":"台電大樓","x":"319","y":"359","en_name_1":"Taipower Building","en_name_2":null,"en_name_1_dx":"-8","en_name_2_dx":null,"station_circle_map_cx":"305.159","station_circle_map_cy":"361.098","station_circle_map_fill":"#FFFFFF","station_circle_map_r":"2.427","station_circle_map_stroke":"#666666","station_circle_map_stroke_width":"1.1999","station_circle_map_stroke-miterlimit":"22.9256","path_d":null,"path_d2":null,"trans_circlex":null,"trans_circley":null,"all_line":"40-3,40-3"},{"id":"71","sid":"39","name":"公館","x":"334","y":"377","en_name_1":"Gongguan","en_name_2":null,"en_name_1_dx":"-5","en_name_2_dx":null,"station_circle_map_cx":"322.377","station_circle_map_cy":"378.315","station_circle_map_fill":"#FFFFFF","station_circle_map_r":"2.427","station_circle_map_stroke":"#666666","station_circle_map_stroke_width":"1.1999","station_circle_map_stroke-miterlimit":"22.9256","path_d":null,"path_d2":null,"trans_circlex":null,"trans_circley":null,"all_line":"39-3,39-3"},{"id":"72","sid":"38","name":"萬隆","x":"338","y":"398","en_name_1":"Wanlong","en_name_2":null,"en_name_1_dx":"-4","en_name_2_dx":null,"station_circle_map_cx":"330.558","station_circle_map_cy":"397.678","station_circle_map_fill":"#FFFFFF","station_circle_map_r":"2.427","station_circle_map_stroke":"#666666","station_circle_map_stroke_width":"1.1999","station_circle_map_stroke-miterlimit":"22.9256","path_d":null,"path_d2":null,"trans_circlex":null,"trans_circley":null,"all_line":"38-3,38-3"},{"id":"73","sid":"37","name":"景美","x":"337","y":"416","en_name_1":"Jingmei","en_name_2":null,"en_name_1_dx":"-3","en_name_2_dx":null,"station_circle_map_cx":"330.558","station_circle_map_cy":"416.218","station_circle_map_fill":"#FFFFFF","station_circle_map_r":"2.427","station_circle_map_stroke":"#666666","station_circle_map_stroke_width":"1.1999","station_circle_map_stroke-miterlimit":"22.9256","path_d":null,"path_d2":null,"trans_circlex":null,"trans_circley":null,"all_line":"37-3,37-3"},{"id":"74","sid":"36","name":"大坪林","x":"334","y":"433","en_name_1":"Dapinglin","en_name_2":null,"en_name_1_dx":null,"en_name_2_dx":null,"station_circle_map_cx":"330.558","station_circle_map_cy":"433.657","station_circle_map_fill":"#FFFFFF","station_circle_map_r":"2.427","station_circle_map_stroke":"#666666","station_circle_map_stroke_width":"1.1999","station_circle_map_stroke-miterlimit":"22.9256","path_d":null,"path_d2":null,"trans_circlex":null,"trans_circley":null,"all_line":"36-3,36-3"},{"id":"75","sid":"35","name":"七張","x":"337","y":"450","en_name_1":"Qizhang","en_name_2":null,"en_name_1_dx":"-3","en_name_2_dx":null,"station_circle_map_cx":null,"station_circle_map_cy":null,"station_circle_map_fill":null,"station_circle_map_r":null,"station_circle_map_stroke":null,"station_circle_map_stroke_width":null,"station_circle_map_stroke-miterlimit":null,"path_d":"M325.759,452.396h4.799 M325.759,447.542 h4.799 M325.759,452.396c-1.341,0-2.428-1.086-2.428-2.427s1.087-2.428,2.428-2.428 M330.558,447.542 c1.341,0,2.428,1.087,2.428,2.428s-1.087,2.427-2.428,2.427","path_d2":"M330.558,452.396c1.341,0,2.428-1.086,2.428-2.427s-1.087-2.428-2.428-2.428h-4.799 c-1.341,0-2.428,1.087-2.428,2.428s1.087,2.427,2.428,2.427H330.558z","trans_circlex":null,"trans_circley":null,"all_line":"35-3,35-3,35-7"},{"id":"76","sid":"34","name":"新店區公所","x":"343","y":"469","en_name_1":"Xindian District Office","en_name_2":null,"en_name_1_dx":"-9","en_name_2_dx":null,"station_circle_map_cx":"330.558","station_circle_map_cy":"469.093","station_circle_map_fill":"#FFFFFF","station_circle_map_r":"2.427","station_circle_map_stroke":"#666666","station_circle_map_stroke_width":"1.1999","station_circle_map_stroke-miterlimit":"22.9256","path_d":null,"path_d2":null,"trans_circlex":null,"trans_circley":null,"all_line":"34-3,34-3"},{"id":"77","sid":"33","name":"新店","x":"337","y":"488","en_name_1":"Xindian","en_name_2":null,"en_name_1_dx":"-2","en_name_2_dx":null,"station_circle_map_cx":"330.558","station_circle_map_cy":"486.719","station_circle_map_fill":"#05752B","station_circle_map_r":"4.2","station_circle_map_stroke":"#05752B","station_circle_map_stroke_width":"1.1999","station_circle_map_stroke-miterlimit":"22.9256","path_d":null,"path_d2":null,"trans_circlex":null,"trans_circley":null,"all_line":"33-3"},{"id":"78","sid":"174","name":"蘆洲","x":"127","y":"109","en_name_1":"Luzhou","en_name_2":null,"en_name_1_dx":"-2","en_name_2_dx":null,"station_circle_map_cx":"130.843","station_circle_map_cy":"120.796","station_circle_map_fill":"#FCA311","station_circle_map_r":"4.2","station_circle_map_stroke":"#FCA311","station_circle_map_stroke_width":"1.1999","station_circle_map_stroke-miterlimit":"22.9256","path_d":null,"path_d2":null,"trans_circlex":null,"trans_circley":null,"all_line":"174-4"},{"id":"79","sid":"175","name":"三民高中","x":"148","y":"126","en_name_1":"Sanmin Senior","en_name_2":"High School","en_name_1_dx":"-4","en_name_2_dx":"2","station_circle_map_cx":"146.987","station_circle_map_cy":"136.968","station_circle_map_fill":"#FFFFFF","station_circle_map_r":"2.427","station_circle_map_stroke":"#666666","station_circle_map_stroke_width":"1.1999","station_circle_map_stroke-miterlimit":"22.9256","path_d":null,"path_d2":null,"trans_circlex":null,"trans_circley":null,"all_line":"175-4,175-4"},{"id":"80","sid":"176","name":"徐匯中學","x":"130","y":"161","en_name_1":"St. Ignatius","en_name_2":"High School","en_name_1_dx":"1","en_name_2_dx":null,"station_circle_map_cx":"161.476","station_circle_map_cy":"151.456","station_circle_map_fill":"#FFFFFF","station_circle_map_r":"2.427","station_circle_map_stroke":"#666666","station_circle_map_stroke_width":"1.1999","station_circle_map_stroke-miterlimit":"22.9256","path_d":null,"path_d2":null,"trans_circlex":null,"trans_circley":null,"all_line":"176-4,176-4"},{"id":"81","sid":"177","name":"三和國中","x":"178","y":"154","en_name_1":"Sanhe Junior","en_name_2":"High School","en_name_1_dx":"-2","en_name_2_dx":null,"station_circle_map_cx":"175.3","station_circle_map_cy":"165.28","station_circle_map_fill":"#FFFFFF","station_circle_map_r":"2.427","station_circle_map_stroke":"#666666","station_circle_map_stroke_width":"1.1999","station_circle_map_stroke-miterlimit":"22.9256","path_d":null,"path_d2":null,"trans_circlex":null,"trans_circley":null,"all_line":"177-4,177-4"},{"id":"82","sid":"178","name":"三重國小","x":"154","y":"183","en_name_1":"Sanchong","en_name_2":"Elementary School","en_name_1_dx":"4","en_name_2_dx":"-8","station_circle_map_cx":"190.019","station_circle_map_cy":"179.999","station_circle_map_fill":"#FFFFFF","station_circle_map_r":"2.427","station_circle_map_stroke":"#666666","station_circle_map_stroke_width":"1.1999","station_circle_map_stroke-miterlimit":"22.9256","path_d":null,"path_d2":null,"trans_circlex":null,"trans_circley":null,"all_line":"178-4,178-4"},{"id":"83","sid":"179","name":"迴龍","x":"8","y":"325","en_name_1":"Huilong","en_name_2":null,"en_name_1_dx":"-2","en_name_2_dx":null,"station_circle_map_cx":"16.282","station_circle_map_cy":"313.601","station_circle_map_fill":"#FCA311","station_circle_map_r":"4.2","station_circle_map_stroke":"#FCA311","station_circle_map_stroke_width":"1.1999","station_circle_map_stroke-miterlimit":"22.9256","path_d":null,"path_d2":null,"trans_circlex":null,"trans_circley":null,"all_line":"179-4"},{"id":"84","sid":"180","name":"丹鳳","x":"38","y":"304","en_name_1":"Danfeng","en_name_2":null,"en_name_1_dx":"-4","en_name_2_dx":null,"station_circle_map_cx":"45.772","station_circle_map_cy":"313.602","station_circle_map_fill":"#FFFFFF","station_circle_map_r":"2.427","station_circle_map_stroke":"#666666","station_circle_map_stroke_width":"1.1999","station_circle_map_stroke-miterlimit":"22.9256","path_d":null,"path_d2":null,"trans_circlex":null,"trans_circley":null,"all_line":"180-4,180-4"},{"id":"85","sid":"121","name":"輔大","x":"64","y":"323","en_name_1":"Fu Jen University","en_name_2":null,"en_name_1_dx":"-16","en_name_2_dx":null,"station_circle_map_cx":"72.321","station_circle_map_cy":"313.602","station_circle_map_fill":"#FFFFFF","station_circle_map_r":"2.427","station_circle_map_stroke":"#666666","station_circle_map_stroke_width":"1.1999","station_circle_map_stroke-miterlimit":"22.9256","path_d":null,"path_d2":null,"trans_circlex":null,"trans_circley":null,"all_line":"121-4,121-4"},{"id":"86","sid":"122","name":"新莊","x":"107","y":"303","en_name_1":"Xinzhuang","en_name_2":null,"en_name_1_dx":"-6","en_name_2_dx":null,"station_circle_map_cx":"102.323","station_circle_map_cy":"299.756","station_circle_map_fill":"#FFFFFF","station_circle_map_r":"2.427","station_circle_map_stroke":"#666666","station_circle_map_stroke_width":"1.1999","station_circle_map_stroke-miterlimit":"22.9256","path_d":null,"path_d2":null,"trans_circlex":null,"trans_circley":null,"all_line":"122-4,122-4"},{"id":"87","sid":"123","name":"頭前庄","x":"128","y":"285","en_name_1":"Touqianzhuang","en_name_2":null,"en_name_1_dx":"-10","en_name_2_dx":null,"station_circle_map_cx":"120.841","station_circle_map_cy":"281.237","station_circle_map_fill":"#FFFFFF","station_circle_map_r":"2.427","station_circle_map_stroke":"#666666","station_circle_map_stroke_width":"1.1999","station_circle_map_stroke-miterlimit":"22.9256","path_d":null,"path_d2":null,"trans_circlex":null,"trans_circley":null,"all_line":"123-4,123-4"},{"id":"88","sid":"124","name":"先嗇宮","x":"144","y":"267","en_name_1":"Xianse Temple","en_name_2":null,"en_name_1_dx":"-8","en_name_2_dx":null,"station_circle_map_cx":"139.404","station_circle_map_cy":"262.675","station_circle_map_fill":"#FFFFFF","station_circle_map_r":"2.427","station_circle_map_stroke":"#666666","station_circle_map_stroke_width":"1.1999","station_circle_map_stroke-miterlimit":"22.9256","path_d":null,"path_d2":null,"trans_circlex":null,"trans_circley":null,"all_line":"124-4,124-4"},{"id":"89","sid":"125","name":"三重","x":"168","y":"244","en_name_1":"Sanchong","en_name_2":null,"en_name_1_dx":"-3","en_name_2_dx":null,"station_circle_map_cx":"157.216","station_circle_map_cy":"244.862","station_circle_map_fill":"#FFFFFF","station_circle_map_r":"2.427","station_circle_map_stroke":"#666666","station_circle_map_stroke_width":"1.1999","station_circle_map_stroke-miterlimit":"22.9256","path_d":null,"path_d2":null,"trans_circlex":null,"trans_circley":null,"all_line":"125-4,125-4,125-A,125-A"},{"id":"90","sid":"126","name":"菜寮","x":"180","y":"229","en_name_1":"Cailiao","en_name_2":null,"en_name_1_dx":"-2","en_name_2_dx":null,"station_circle_map_cx":"175.245","station_circle_map_cy":"226.834","station_circle_map_fill":"#FFFFFF","station_circle_map_r":"2.427","station_circle_map_stroke":"#666666","station_circle_map_stroke_width":"1.1999","station_circle_map_stroke-miterlimit":"22.9256","path_d":null,"path_d2":null,"trans_circlex":null,"trans_circley":null,"all_line":"126-4,126-4"},{"id":"91","sid":"127","name":"台北橋","x":"196","y":"213","en_name_1":"Taipei Bridge","en_name_2":null,"en_name_1_dx":"-6","en_name_2_dx":null,"station_circle_map_cx":"192.511","station_circle_map_cy":"209.568","station_circle_map_fill":"#FFFFFF","station_circle_map_r":"2.427","station_circle_map_stroke":"#666666","station_circle_map_stroke_width":"1.1999","station_circle_map_stroke-miterlimit":"22.9256","path_d":null,"path_d2":null,"trans_circlex":null,"trans_circley":null,"all_line":"127-4,127-4"},{"id":"92","sid":"128","name":"大橋頭","x":"218","y":"186","en_name_1":"Daqiaotou","en_name_2":null,"en_name_1_dx":"-2","en_name_2_dx":null,"station_circle_map_cx":"231.304","station_circle_map_cy":"196.029","station_circle_map_fill":"#FFFFFF","station_circle_map_r":"2.427","station_circle_map_stroke":"#666666","station_circle_map_stroke_width":"1.1999","station_circle_map_stroke-miterlimit":"22.9256","path_d":null,"path_d2":null,"trans_circlex":null,"trans_circley":null,"all_line":"128-4,128-4,128-4"},{"id":"94","sid":"130","name":"中山國小","x":"288","y":"180","en_name_1":"Zhongshan","en_name_2":"Elementary School","en_name_1_dx":"1","en_name_2_dx":"-9","station_circle_map_cx":"304.562","station_circle_map_cy":"196.029","station_circle_map_fill":"#FFFFFF","station_circle_map_r":"2.427","station_circle_map_stroke":"#666666","station_circle_map_stroke_width":"1.1999","station_circle_map_stroke-miterlimit":"22.9256","path_d":null,"path_d2":null,"trans_circlex":null,"trans_circley":null,"all_line":"130-4,130-4,130-4"},{"id":"95","sid":"131","name":"行天宮","x":"331","y":"215","en_name_1":"Xingtian Temple ","en_name_2":null,"en_name_1_dx":"-10","en_name_2_dx":null,"station_circle_map_cx":"318.849","station_circle_map_cy":"214.139","station_circle_map_fill":"#FFFFFF","station_circle_map_r":"2.427","station_circle_map_stroke":"#666666","station_circle_map_stroke_width":"1.1999","station_circle_map_stroke-miterlimit":"22.9256","path_d":null,"path_d2":null,"trans_circlex":null,"trans_circley":null,"all_line":"131-4,131-4,131-4"},{"id":"97","sid":"89","name":"忠孝新生","x":"323","y":"278","en_name_1":"Zhongxiao","en_name_2":"Xinsheng","en_name_1_dx":"2","en_name_2_dx":"4","station_circle_map_cx":"318.849","station_circle_map_cy":"269.228","station_circle_map_fill":"#FFFFFF","station_circle_map_r":"4.2","station_circle_map_stroke":"#666666","station_circle_map_stroke_width":"1.1999","station_circle_map_stroke-miterlimit":"22.9256","path_d":null,"path_d2":null,"trans_circlex":"318.849","trans_circley":"269.228","all_line":"89-4,89-4,89-4,89-5,89-5"},{"id":"100","sid":"45","name":"頂溪","x":"274","y":"376","en_name_1":"Dingxi","en_name_2":null,"en_name_1_dx":"-0.5","en_name_2_dx":null,"station_circle_map_cx":"270.034","station_circle_map_cy":"370.801","station_circle_map_fill":"#FFFFFF","station_circle_map_r":"2.427","station_circle_map_stroke":"#666666","station_circle_map_stroke_width":"1.1999","station_circle_map_stroke-miterlimit":"22.9256","path_d":null,"path_d2":null,"trans_circlex":null,"trans_circley":null,"all_line":"45-4,45-4,45-4"},{"id":"101","sid":"46","name":"永安市場","x":"256","y":"393","en_name_1":"Yongan Market","en_name_2":null,"en_name_1_dx":"-4","en_name_2_dx":null,"station_circle_map_cx":"252.661","station_circle_map_cy":"388.175","station_circle_map_fill":"#FFFFFF","station_circle_map_r":"2.427","station_circle_map_stroke":"#666666","station_circle_map_stroke_width":"1.1999","station_circle_map_stroke-miterlimit":"22.9256","path_d":null,"path_d2":null,"trans_circlex":null,"trans_circley":null,"all_line":"46-4,46-4,46-4"},{"id":"102","sid":"47","name":"景安","x":"235","y":"415","en_name_1":"Jingan","en_name_2":null,"en_name_1_dx":"-1","en_name_2_dx":null,"station_circle_map_cx":"231.416","station_circle_map_cy":"409.42","station_circle_map_fill":"#FFFFFF","station_circle_map_r":"2.427","station_circle_map_stroke":"#666666","station_circle_map_stroke_width":"1.1999","station_circle_map_stroke-miterlimit":"22.9256","path_d":null,"path_d2":null,"trans_circlex":null,"trans_circley":null,"all_line":"47-4,47-4,47-4"},{"id":"103","sid":"48","name":"南勢角","x":"233","y":"436","en_name_1":"Nanshijiao","en_name_2":null,"en_name_1_dx":"-2","en_name_2_dx":null,"station_circle_map_cx":"226.449","station_circle_map_cy":"436.028","station_circle_map_fill":"#FCA311","station_circle_map_r":"4.2","station_circle_map_stroke":"#FCA311","station_circle_map_stroke_width":"1.1999","station_circle_map_stroke-miterlimit":"22.9256","path_d":null,"path_d2":null,"trans_circlex":null,"trans_circley":null,"all_line":"48-4,48-4"},{"id":"105","sid":"97","name":"南港","x":"584","y":"227","en_name_1":"Nangang","en_name_2":null,"en_name_1_dx":"-4","en_name_2_dx":null,"station_circle_map_cx":"579.799","station_circle_map_cy":"221.878","station_circle_map_fill":"#FFFFFF","station_circle_map_r":"2.427","station_circle_map_stroke":"#666666","station_circle_map_stroke_width":"1.1999","station_circle_map_stroke-miterlimit":"22.9256","path_d":null,"path_d2":null,"trans_circlex":null,"trans_circley":null,"all_line":"97-5,97-5"},{"id":"106","sid":"96","name":"昆陽","x":"565","y":"245","en_name_1":"Kunyang","en_name_2":null,"en_name_1_dx":"-4","en_name_2_dx":null,"station_circle_map_cx":"561.518","station_circle_map_cy":"240.159","station_circle_map_fill":"#FFFFFF","station_circle_map_r":"2.427","station_circle_map_stroke":"#666666","station_circle_map_stroke_width":"1.1999","station_circle_map_stroke-miterlimit":"22.9256","path_d":null,"path_d2":null,"trans_circlex":null,"trans_circley":null,"all_line":"96-5,96-5"},{"id":"107","sid":"95","name":"後山埤","x":"546","y":"264","en_name_1":"Houshanpi","en_name_2":null,"en_name_1_dx":"-3","en_name_2_dx":null,"station_circle_map_cx":"543.02","station_circle_map_cy":"258.656","station_circle_map_fill":"#FFFFFF","station_circle_map_r":"2.427","station_circle_map_stroke":"#666666","station_circle_map_stroke_width":"1.1999","station_circle_map_stroke-miterlimit":"22.9256","path_d":null,"path_d2":null,"trans_circlex":null,"trans_circley":null,"all_line":"95-5,95-5"},{"id":"108","sid":"94","name":"永春","x":"509","y":"279","en_name_1":"Yongchun","en_name_2":null,"en_name_1_dx":"-5","en_name_2_dx":null,"station_circle_map_cx":"516.62","station_circle_map_cy":"269.228","station_circle_map_fill":"#FFFFFF","station_circle_map_r":"2.427","station_circle_map_stroke":"#666666","station_circle_map_stroke_width":"1.1999","station_circle_map_stroke-miterlimit":"22.9256","path_d":null,"path_d2":null,"trans_circlex":null,"trans_circley":null,"all_line":"94-5,94-5"},{"id":"109","sid":"93","name":"市政府","x":"475","y":"259","en_name_1":"Taipei City Hall","en_name_2":null,"en_name_1_dx":"-9","en_name_2_dx":null,"station_circle_map_cx":"487.266","station_circle_map_cy":"269.228","station_circle_map_fill":"#FFFFFF","station_circle_map_r":"2.427","station_circle_map_stroke":"#666666","station_circle_map_stroke_width":"1.1999","station_circle_map_stroke-miterlimit":"22.9256","path_d":null,"path_d2":null,"trans_circlex":null,"trans_circley":null,"all_line":"93-5,93-5"},{"id":"110","sid":"92","name":"國父紀念館","x":"434","y":"279","en_name_1":"S.Y.S. Memorial Hall","en_name_2":null,"en_name_1_dx":"-8","en_name_2_dx":null,"station_circle_map_cx":"454.184","station_circle_map_cy":"269.228","station_circle_map_fill":"#FFFFFF","station_circle_map_r":"2.427","station_circle_map_stroke":"#666666","station_circle_map_stroke_width":"1.1999","station_circle_map_stroke-miterlimit":"22.9256","path_d":null,"path_d2":null,"trans_circlex":null,"trans_circley":null,"all_line":"92-5,92-5"},{"id":"111","sid":"91","name":"忠孝敦化","x":"403","y":"260","en_name_1":"Zhongxiao Dunhua","en_name_2":null,"en_name_1_dx":"-9","en_name_2_dx":null,"station_circle_map_cx":"418.276","station_circle_map_cy":"269.228","station_circle_map_fill":"#FFFFFF","station_circle_map_r":"2.427","station_circle_map_stroke":"#666666","station_circle_map_stroke_width":"1.1999","station_circle_map_stroke-miterlimit":"22.9256","path_d":null,"path_d2":null,"trans_circlex":null,"trans_circley":null,"all_line":"91-5,91-5"},{"id":"114","sid":"88","name":"善導寺","x":"274","y":"253","en_name_1":"Shandao","en_name_2":"Temple","en_name_1_dx":null,"en_name_2_dx":"2","station_circle_map_cx":"286.822","station_circle_map_cy":"269.228","station_circle_map_fill":"#FFFFFF","station_circle_map_r":"2.427","station_circle_map_stroke":"#666666","station_circle_map_stroke_width":"1.1999","station_circle_map_stroke-miterlimit":"22.9256","path_d":null,"path_d2":null,"trans_circlex":null,"trans_circley":null,"all_line":"88-5,88-5"},{"id":"117","sid":"85","name":"龍山寺","x":"183","y":"322","en_name_1":"Longshan","en_name_2":"Temple","en_name_1_dx":"-1","en_name_2_dx":"2","station_circle_map_cx":"194.882","station_circle_map_cy":"312.427","station_circle_map_fill":"#FFFFFF","station_circle_map_r":"2.427","station_circle_map_stroke":"#666666","station_circle_map_stroke_width":"1.1999","station_circle_map_stroke-miterlimit":"22.9256","path_d":null,"path_d2":null,"trans_circlex":null,"trans_circley":null,"all_line":"85-5,85-5"},{"id":"118","sid":"84","name":"江子翠","x":"139","y":"311","en_name_1":"Jiangzicui","en_name_2":null,"en_name_1_dx":"-2","en_name_2_dx":null,"station_circle_map_cx":"163.491","station_circle_map_cy":"320.76","station_circle_map_fill":"#FFFFFF","station_circle_map_r":"2.427","station_circle_map_stroke":"#666666","station_circle_map_stroke_width":"1.1999","station_circle_map_stroke-miterlimit":"22.9256","path_d":null,"path_d2":null,"trans_circlex":null,"trans_circley":null,"all_line":"84-5,84-5"},{"id":"119","sid":"83","name":"新埔","x":"146","y":"347","en_name_1":"Xinpu","en_name_2":null,"en_name_1_dx":"1","en_name_2_dx":null,"station_circle_map_cx":"143.213","station_circle_map_cy":"341.039","station_circle_map_fill":"#FFFFFF","station_circle_map_r":"2.427","station_circle_map_stroke":"#666666","station_circle_map_stroke_width":"1.1999","station_circle_map_stroke-miterlimit":"22.9256","path_d":null,"path_d2":null,"trans_circlex":null,"trans_circley":null,"all_line":"83-5,83-5"},{"id":"120","sid":"82","name":"板橋","x":"130","y":"363","en_name_1":"Banqiao","en_name_2":null,"en_name_1_dx":"-3","en_name_2_dx":null,"station_circle_map_cx":"126.902","station_circle_map_cy":"357.35","station_circle_map_fill":"#FFFFFF","station_circle_map_r":"2.427","station_circle_map_stroke":"#666666","station_circle_map_stroke_width":"1.1999","station_circle_map_stroke-miterlimit":"22.9256","path_d":null,"path_d2":null,"trans_circlex":null,"trans_circley":null,"all_line":"82-5,82-5"},{"id":"121","sid":"81","name":"府中","x":"113","y":"380","en_name_1":"Fuzhong","en_name_2":null,"en_name_1_dx":"-4","en_name_2_dx":null,"station_circle_map_cx":"109.701","station_circle_map_cy":"374.551","station_circle_map_fill":"#FFFFFF","station_circle_map_r":"2.427","station_circle_map_stroke":"#666666","station_circle_map_stroke_width":"1.1999","station_circle_map_stroke-miterlimit":"22.9256","path_d":null,"path_d2":null,"trans_circlex":null,"trans_circley":null,"all_line":"81-5,81-5"},{"id":"122","sid":"80","name":"亞東醫院","x":"112","y":"403","en_name_1":"Far Eastern Hospital","en_name_2":null,"en_name_1_dx":"-12","en_name_2_dx":null,"station_circle_map_cx":"98.049","station_circle_map_cy":"401.302","station_circle_map_fill":"#FFFFFF","station_circle_map_r":"2.427","station_circle_map_stroke":"#666666","station_circle_map_stroke_width":"1.1999","station_circle_map_stroke-miterlimit":"22.9256","path_d":null,"path_d2":null,"trans_circlex":null,"trans_circley":null,"all_line":"80-5,80-5"},{"id":"123","sid":"79","name":"海山","x":"103","y":"429","en_name_1":"Haishan","en_name_2":null,"en_name_1_dx":"-3","en_name_2_dx":null,"station_circle_map_cx":"98.049","station_circle_map_cy":"427.937","station_circle_map_fill":"#FFFFFF","station_circle_map_r":"2.427","station_circle_map_stroke":"#666666","station_circle_map_stroke_width":"1.1999","station_circle_map_stroke-miterlimit":"22.9256","path_d":null,"path_d2":null,"trans_circlex":null,"trans_circley":null,"all_line":"79-5,79-5"},{"id":"124","sid":"78","name":"土城","x":"103","y":"455","en_name_1":"Tucheng","en_name_2":null,"en_name_1_dx":"-3","en_name_2_dx":null,"station_circle_map_cx":"98.049","station_circle_map_cy":"453.239","station_circle_map_fill":"#FFFFFF","station_circle_map_r":"2.427","station_circle_map_stroke":"#666666","station_circle_map_stroke_width":"1.1999","station_circle_map_stroke-miterlimit":"22.9256","path_d":null,"path_d2":null,"trans_circlex":null,"trans_circley":null,"all_line":"78-5,78-5"},{"id":"125","sid":"77","name":"永寧","x":"94","y":"477","en_name_1":"Yongning","en_name_2":null,"en_name_1_dx":"-5","en_name_2_dx":null,"station_circle_map_cx":"85.449","station_circle_map_cy":"476.002","station_circle_map_fill":"#FFFFFF","station_circle_map_r":"2.427","station_circle_map_stroke":"#666666","station_circle_map_stroke_width":"1.1999","station_circle_map_stroke-miterlimit":"22.9256","path_d":null,"path_d2":null,"trans_circlex":null,"trans_circley":null,"all_line":"77-5,77-5"},{"id":"126","sid":"65","name":"新北投","x":"218","y":"20","en_name_1":"Xinbeitou","en_name_2":null,"en_name_1_dx":"-1","en_name_2_dx":null,"station_circle_map_cx":"211.998","station_circle_map_cy":"19.793","station_circle_map_fill":"#F98E99","station_circle_map_r":"4.2","station_circle_map_stroke":"#F98E99","station_circle_map_stroke_width":"1.1999","station_circle_map_stroke-miterlimit":"22.9256","path_d":null,"path_d2":null,"trans_circlex":null,"trans_circley":null,"all_line":"65-6"},{"id":"127","sid":"32","name":"小碧潭","x":"273","y":"463","en_name_1":"Xiaobitan","en_name_2":null,"en_name_1_dx":"-1","en_name_2_dx":null,"station_circle_map_cx":"302.958","station_circle_map_cy":"462.718","station_circle_map_fill":"#CCE226","station_circle_map_r":"4.2","station_circle_map_stroke":"#CCE226","station_circle_map_stroke_width":"1.1999","station_circle_map_stroke-miterlimit":"22.9256","path_d":null,"path_d2":null,"trans_circlex":null,"trans_circley":null,"all_line":"32-7"},{"id":"143","sid":"76","name":"頂埔","x":"78","y":"493","en_name_1":"Dingpu","en_name_2":null,"en_name_1_dx":"-2","en_name_2_dx":null,"station_circle_map_cx":"72.449","station_circle_map_cy":"489.002","station_circle_map_fill":"#0072C6","station_circle_map_r":"4.2","station_circle_map_stroke":"#0072C6","station_circle_map_stroke_width":"1.1999","station_circle_map_stroke-miterlimit":"22.9256","path_d":null,"path_d2":null,"trans_circlex":null,"trans_circley":null,"all_line":"76-5,76-5"},{"id":"148","sid":"A3","name":"新北產業園區","x":"66","y":"216","en_name_1":"New Taipei","en_name_2":"Industrial Park","en_name_1_dx":"8","en_name_2_dx":"4","station_circle_map_cx":"118","station_circle_map_cy":"223","station_circle_map_fill":"#FFFFFF","station_circle_map_r":"4.2","station_circle_map_stroke":"#8F47AD","station_circle_map_stroke_width":"1.1999","station_circle_map_stroke-miterlimit":"22.9256","path_d":null,"path_d2":null,"trans_circlex":"118","trans_circley":"223","all_line":"A3-A,A3-A,A3-A"},{"id":"149","sid":"A4","name":"新莊副都心","x":"103","y":"247","en_name_1":"Xinzhuang","en_name_2":"Fuduxin","en_name_1_dx":"4","en_name_2_dx":"8","station_circle_map_cx":"99.448","station_circle_map_cy":"241.52","station_circle_map_fill":"#FFFFFF","station_circle_map_r":"2.5","station_circle_map_stroke":"#666666","station_circle_map_stroke_width":"1.1999","station_circle_map_stroke-miterlimit":"22.9256","path_d":null,"path_d2":null,"trans_circlex":null,"trans_circley":null,"all_line":"A4-A,A4-A"},{"id":"150","sid":"A5","name":"泰山","x":"84","y":"265","en_name_1":"Taishan","en_name_2":null,"en_name_1_dx":"-4","en_name_2_dx":null,"station_circle_map_cx":"80.896","station_circle_map_cy":"260.045","station_circle_map_fill":"#FFFFFF","station_circle_map_r":"2.5","station_circle_map_stroke":"#666666","station_circle_map_stroke_width":"1.1999","station_circle_map_stroke-miterlimit":"22.9256","path_d":null,"path_d2":null,"trans_circlex":null,"trans_circley":null,"all_line":"A5-A,A5-A"},{"id":"151","sid":"A6","name":"泰山貴和","x":"65","y":"285","en_name_1":"Taishan Guihe","en_name_2":null,"en_name_1_dx":"-6","en_name_2_dx":null,"station_circle_map_cx":"62.344","station_circle_map_cy":"278.567","station_circle_map_fill":"#FFFFFF","station_circle_map_r":"2.5","station_circle_map_stroke":"#666666","station_circle_map_stroke_width":"1.1999","station_circle_map_stroke-miterlimit":"22.9256","path_d":null,"path_d2":null,"trans_circlex":null,"trans_circley":null,"all_line":"A6-A,A6-A"},{"id":"152","sid":"A7","name":"體育大學","x":"16","y":"268","en_name_1":"National Taiwan","en_name_2":"Sport University","en_name_1_dx":"-13","en_name_2_dx":"-12","station_circle_map_cx":"50.8","station_circle_map_cy":"261","station_circle_map_fill":"#FFFFFF","station_circle_map_r":"2.5","station_circle_map_stroke":"#666666","station_circle_map_stroke_width":"1.1999","station_circle_map_stroke-miterlimit":"22.9256","path_d":null,"path_d2":null,"trans_circlex":null,"trans_circley":null,"all_line":"A7-A,A7-A"},{"id":"153","sid":"A8","name":"長庚醫院","x":"14","y":"239","en_name_1":"Chang Gung","en_name_2":"Memorial Hospital","en_name_1_dx":"-2","en_name_2_dx":"-14.9","station_circle_map_cx":"50.8","station_circle_map_cy":"238","station_circle_map_fill":"#FFFFFF","station_circle_map_r":"4.2","station_circle_map_stroke":"#8F47AD","station_circle_map_stroke_width":"1.1999","station_circle_map_stroke-miterlimit":"22.9256","path_d":null,"path_d2":null,"trans_circlex":"50.8","trans_circley":"238","all_line":"A8-A,A8-A"},{"id":"154","sid":"A9","name":"林口","x":"32","y":"218","en_name_1":"Linkou","en_name_2":null,"en_name_1_dx":"-2","en_name_2_dx":null,"station_circle_map_cx":"50.8","station_circle_map_cy":"215","station_circle_map_fill":"#FFFFFF","station_circle_map_r":"2.5","station_circle_map_stroke":"#666666","station_circle_map_stroke_width":"1.1999","station_circle_map_stroke-miterlimit":"22.9256","path_d":null,"path_d2":null,"trans_circlex":null,"trans_circley":null,"all_line":"A9-A,A9-A"},{"id":"155","sid":"A10","name":"山鼻","x":"32","y":"195","en_name_1":"Shanbi","en_name_2":null,"en_name_1_dx":"-3","en_name_2_dx":null,"station_circle_map_cx":"50.8","station_circle_map_cy":"192","station_circle_map_fill":"#FFFFFF","station_circle_map_r":"2.5","station_circle_map_stroke":"#666666","station_circle_map_stroke_width":"1.1999","station_circle_map_stroke-miterlimit":"22.9256","path_d":null,"path_d2":null,"trans_circlex":null,"trans_circley":null,"all_line":"A10-A,A10-A"},{"id":"156","sid":"A11","name":"坑口","x":"32","y":"172","en_name_1":"Kengkou","en_name_2":null,"en_name_1_dx":"-8","en_name_2_dx":null,"station_circle_map_cx":"50.8","station_circle_map_cy":"169","station_circle_map_fill":"#FFFFFF","station_circle_map_r":"2.5","station_circle_map_stroke":"#666666","station_circle_map_stroke_width":"1.1999","station_circle_map_stroke-miterlimit":"22.9256","path_d":null,"path_d2":null,"trans_circlex":null,"trans_circley":null,"all_line":"A11-A,A11-A"},{"id":"157","sid":"A12","name":"機場第一航廈","x":"56","y":"150","en_name_1":"Airport Terminal 1","en_name_2":null,"en_name_1_dx":"-1","en_name_2_dx":null,"station_circle_map_cx":"50.8","station_circle_map_cy":"146","station_circle_map_fill":"#FFFFFF","station_circle_map_r":"4.2","station_circle_map_stroke":"#8F47AD","station_circle_map_stroke_width":"1.1999","station_circle_map_stroke-miterlimit":"22.9256","path_d":null,"path_d2":null,"trans_circlex":"50.8","trans_circley":"146","all_line":"A12-A,A12-A,A12-A"},{"id":"158","sid":"A13","name":"機場第二航廈","x":"56","y":"127","en_name_1":"Airport Terminal 2","en_name_2":null,"en_name_1_dx":"-1","en_name_2_dx":null,"station_circle_map_cx":"50.8","station_circle_map_cy":"123","station_circle_map_fill":"#FFFFFF","station_circle_map_r":"4.2","station_circle_map_stroke":"#8F47AD","station_circle_map_stroke_width":"1.1999","station_circle_map_stroke-miterlimit":"22.9256","path_d":null,"path_d2":null,"trans_circlex":"50.8","trans_circley":"123","all_line":"A13-A,A13-A,A13-A"},{"id":"159","sid":"A14a","name":"機場旅館","x":"54","y":"104","en_name_1":"Airport Hotel","en_name_2":null,"en_name_1_dx":"-1","en_name_2_dx":null,"station_circle_map_cx":"50.8","station_circle_map_cy":"100","station_circle_map_fill":"#FFFFFF","station_circle_map_r":"2.5","station_circle_map_stroke":"#666666","station_circle_map_stroke_width":"1.1999","station_circle_map_stroke-miterlimit":"22.9526","path_d":null,"path_d2":null,"trans_circlex":null,"trans_circley":null,"all_line":"A14a-A,A14a-A"},{"id":"160","sid":"A1","name":"台北車站","x":null,"y":null,"en_name_1":"Taipei Main","en_name_2":"Station","en_name_1_dx":"-1","en_name_2_dx":"7","station_circle_map_cx":"240","station_circle_map_cy":"260","station_circle_map_fill":"#8F47AD","station_circle_map_r":"4.2","station_circle_map_stroke":"#8F47AD","station_circle_map_stroke_width":"1.1999","station_circle_map_stroke-miterlimit":"22.9256","path_d":null,"path_d2":null,"trans_circlex":null,"trans_circley":null,"all_line":"A1-A,A1-A,A1-A"}]